{"attributes":{"buildNum":27675,"defaultIndex":"b4f59db0-8a4a-11ea-995b-5fad58e4d75c"},"id":"7.5.2","references":[],"type":"config","updated_at":"2020-05-28T16:39:50.968Z","version":"WzE2LDFd"}
{"attributes":{"description":"","kibanaSavedObjectMeta":{"searchSourceJSON":"{\"query\":{\"query\":\"\",\"language\":\"kuery\"},\"filter\":[]}"},"title":"Summary title","uiStateJSON":"{}","version":1,"visState":"{\"title\":\"Summary title\",\"type\":\"markdown\",\"params\":{\"fontSize\":12,\"openLinksInNewTab\":false,\"markdown\":\"# **SUMMARY**\"},\"aggs\":[]}"},"id":"717642f0-a1c0-11ea-8d5d-39814bb06ebc","migrationVersion":{"visualization":"7.4.2"},"references":[],"type":"visualization","updated_at":"2020-05-29T15:24:09.759Z","version":"Wzg3LDJd"}
{"attributes":{"fields":"[{\"name\":\"_id\",\"type\":\"string\",\"esTypes\":[\"_id\"],\"count\":0,\"scripted\":false,\"searchable\":true,\"aggregatable\":true,\"readFromDocValues\":false},{\"name\":\"_index\",\"type\":\"string\",\"esTypes\":[\"_index\"],\"count\":0,\"scripted\":false,\"searchable\":true,\"aggregatable\":true,\"readFromDocValues\":false},{\"name\":\"_score\",\"type\":\"number\",\"count\":0,\"scripted\":false,\"searchable\":false,\"aggregatable\":false,\"readFromDocValues\":false},{\"name\":\"_source\",\"type\":\"_source\",\"esTypes\":[\"_source\"],\"count\":0,\"scripted\":false,\"searchable\":false,\"aggregatable\":false,\"readFromDocValues\":false},{\"name\":\"_type\",\"type\":\"string\",\"esTypes\":[\"_type\"],\"count\":0,\"scripted\":false,\"searchable\":true,\"aggregatable\":true,\"readFromDocValues\":false},{\"name\":\"category\",\"type\":\"string\",\"esTypes\":[\"text\"],\"count\":1,\"scripted\":false,\"searchable\":true,\"aggregatable\":false,\"readFromDocValues\":false},{\"name\":\"category.keyword\",\"type\":\"string\",\"esTypes\":[\"keyword\"],\"count\":0,\"scripted\":false,\"searchable\":true,\"aggregatable\":true,\"readFromDocValues\":true,\"parent\":\"category\",\"subType\":\"multi\"},{\"name\":\"certificate\",\"type\":\"string\",\"esTypes\":[\"text\"],\"count\":0,\"scripted\":false,\"searchable\":true,\"aggregatable\":false,\"readFromDocValues\":false},{\"name\":\"certificate.keyword\",\"type\":\"string\",\"esTypes\":[\"keyword\"],\"count\":0,\"scripted\":false,\"searchable\":true,\"aggregatable\":true,\"readFromDocValues\":true,\"parent\":\"certificate\",\"subType\":\"multi\"},{\"name\":\"certificate_txt\",\"type\":\"string\",\"esTypes\":[\"text\"],\"count\":0,\"scripted\":false,\"searchable\":true,\"aggregatable\":false,\"readFromDocValues\":false},{\"name\":\"certificate_txt.keyword\",\"type\":\"string\",\"esTypes\":[\"keyword\"],\"count\":0,\"scripted\":false,\"searchable\":true,\"aggregatable\":true,\"readFromDocValues\":true,\"parent\":\"certificate_txt\",\"subType\":\"multi\"},{\"name\":\"ciphers\",\"type\":\"string\",\"esTypes\":[\"text\"],\"count\":0,\"scripted\":false,\"searchable\":true,\"aggregatable\":false,\"readFromDocValues\":false},{\"name\":\"ciphers.keyword\",\"type\":\"string\",\"esTypes\":[\"keyword\"],\"count\":0,\"scripted\":false,\"searchable\":true,\"aggregatable\":true,\"readFromDocValues\":true,\"parent\":\"ciphers\",\"subType\":\"multi\"},{\"name\":\"compression\",\"type\":\"string\",\"esTypes\":[\"text\"],\"count\":0,\"scripted\":false,\"searchable\":true,\"aggregatable\":false,\"readFromDocValues\":false},{\"name\":\"compression.keyword\",\"type\":\"string\",\"esTypes\":[\"keyword\"],\"count\":0,\"scripted\":false,\"searchable\":true,\"aggregatable\":true,\"readFromDocValues\":true,\"parent\":\"compression\",\"subType\":\"multi\"},{\"name\":\"date\",\"type\":\"date\",\"esTypes\":[\"date\"],\"count\":0,\"scripted\":false,\"searchable\":true,\"aggregatable\":true,\"readFromDocValues\":true},{\"name\":\"description\",\"type\":\"string\",\"esTypes\":[\"text\"],\"count\":1,\"scripted\":false,\"searchable\":true,\"aggregatable\":false,\"readFromDocValues\":false},{\"name\":\"description.keyword\",\"type\":\"string\",\"esTypes\":[\"keyword\"],\"count\":0,\"scripted\":false,\"searchable\":true,\"aggregatable\":true,\"readFromDocValues\":true,\"parent\":\"description\",\"subType\":\"multi\"},{\"name\":\"headers\",\"type\":\"string\",\"esTypes\":[\"text\"],\"count\":1,\"scripted\":false,\"searchable\":true,\"aggregatable\":false,\"readFromDocValues\":false},{\"name\":\"headers.keyword\",\"type\":\"string\",\"esTypes\":[\"keyword\"],\"count\":0,\"scripted\":false,\"searchable\":true,\"aggregatable\":true,\"readFromDocValues\":true,\"parent\":\"headers\",\"subType\":\"multi\"},{\"name\":\"host\",\"type\":\"string\",\"esTypes\":[\"text\"],\"count\":1,\"scripted\":false,\"searchable\":true,\"aggregatable\":false,\"readFromDocValues\":false},{\"name\":\"host.keyword\",\"type\":\"string\",\"esTypes\":[\"keyword\"],\"count\":0,\"scripted\":false,\"searchable\":true,\"aggregatable\":true,\"readFromDocValues\":true,\"parent\":\"host\",\"subType\":\"multi\"},{\"name\":\"kexAlgo\",\"type\":\"string\",\"esTypes\":[\"text\"],\"count\":2,\"scripted\":false,\"searchable\":true,\"aggregatable\":false,\"readFromDocValues\":false},{\"name\":\"kexAlgo.keyword\",\"type\":\"string\",\"esTypes\":[\"keyword\"],\"count\":0,\"scripted\":false,\"searchable\":true,\"aggregatable\":true,\"readFromDocValues\":true,\"parent\":\"kexAlgo\",\"subType\":\"multi\"},{\"name\":\"kex_algo\",\"type\":\"string\",\"esTypes\":[\"text\"],\"count\":0,\"scripted\":false,\"searchable\":true,\"aggregatable\":false,\"readFromDocValues\":false},{\"name\":\"kex_algo.keyword\",\"type\":\"string\",\"esTypes\":[\"keyword\"],\"count\":0,\"scripted\":false,\"searchable\":true,\"aggregatable\":true,\"readFromDocValues\":true,\"parent\":\"kex_algo\",\"subType\":\"multi\"},{\"name\":\"keyAlgo\",\"type\":\"string\",\"esTypes\":[\"text\"],\"count\":0,\"scripted\":false,\"searchable\":true,\"aggregatable\":false,\"readFromDocValues\":false},{\"name\":\"keyAlgo.keyword\",\"type\":\"string\",\"esTypes\":[\"keyword\"],\"count\":0,\"scripted\":false,\"searchable\":true,\"aggregatable\":true,\"readFromDocValues\":true,\"parent\":\"keyAlgo\",\"subType\":\"multi\"},{\"name\":\"key_algo\",\"type\":\"string\",\"esTypes\":[\"text\"],\"count\":0,\"scripted\":false,\"searchable\":true,\"aggregatable\":false,\"readFromDocValues\":false},{\"name\":\"key_algo.keyword\",\"type\":\"string\",\"esTypes\":[\"keyword\"],\"count\":0,\"scripted\":false,\"searchable\":true,\"aggregatable\":true,\"readFromDocValues\":true,\"parent\":\"key_algo\",\"subType\":\"multi\"},{\"name\":\"kostKeyFingerprint\",\"type\":\"string\",\"esTypes\":[\"text\"],\"count\":0,\"scripted\":false,\"searchable\":true,\"aggregatable\":false,\"readFromDocValues\":false},{\"name\":\"kostKeyFingerprint.keyword\",\"type\":\"string\",\"esTypes\":[\"keyword\"],\"count\":0,\"scripted\":false,\"searchable\":true,\"aggregatable\":true,\"readFromDocValues\":true,\"parent\":\"kostKeyFingerprint\",\"subType\":\"multi\"},{\"name\":\"kostKeyType\",\"type\":\"string\",\"esTypes\":[\"text\"],\"count\":0,\"scripted\":false,\"searchable\":true,\"aggregatable\":false,\"readFromDocValues\":false},{\"name\":\"kostKeyType.keyword\",\"type\":\"string\",\"esTypes\":[\"keyword\"],\"count\":0,\"scripted\":false,\"searchable\":true,\"aggregatable\":true,\"readFromDocValues\":true,\"parent\":\"kostKeyType\",\"subType\":\"multi\"},{\"name\":\"kost_key_fingerprint\",\"type\":\"string\",\"esTypes\":[\"text\"],\"count\":0,\"scripted\":false,\"searchable\":true,\"aggregatable\":false,\"readFromDocValues\":false},{\"name\":\"kost_key_fingerprint.keyword\",\"type\":\"string\",\"esTypes\":[\"keyword\"],\"count\":0,\"scripted\":false,\"searchable\":true,\"aggregatable\":true,\"readFromDocValues\":true,\"parent\":\"kost_key_fingerprint\",\"subType\":\"multi\"},{\"name\":\"kost_key_type\",\"type\":\"string\",\"esTypes\":[\"text\"],\"count\":0,\"scripted\":false,\"searchable\":true,\"aggregatable\":false,\"readFromDocValues\":false},{\"name\":\"kost_key_type.keyword\",\"type\":\"string\",\"esTypes\":[\"keyword\"],\"count\":0,\"scripted\":false,\"searchable\":true,\"aggregatable\":true,\"readFromDocValues\":true,\"parent\":\"kost_key_type\",\"subType\":\"multi\"},{\"name\":\"macs\",\"type\":\"string\",\"esTypes\":[\"text\"],\"count\":0,\"scripted\":false,\"searchable\":true,\"aggregatable\":false,\"readFromDocValues\":false},{\"name\":\"macs.keyword\",\"type\":\"string\",\"esTypes\":[\"keyword\"],\"count\":0,\"scripted\":false,\"searchable\":true,\"aggregatable\":true,\"readFromDocValues\":true,\"parent\":\"macs\",\"subType\":\"multi\"},{\"name\":\"name\",\"type\":\"string\",\"esTypes\":[\"text\"],\"count\":0,\"scripted\":false,\"searchable\":true,\"aggregatable\":false,\"readFromDocValues\":false},{\"name\":\"name.keyword\",\"type\":\"string\",\"esTypes\":[\"keyword\"],\"count\":0,\"scripted\":false,\"searchable\":true,\"aggregatable\":true,\"readFromDocValues\":true,\"parent\":\"name\",\"subType\":\"multi\"},{\"name\":\"port\",\"type\":\"number\",\"esTypes\":[\"short\"],\"count\":0,\"scripted\":false,\"searchable\":true,\"aggregatable\":true,\"readFromDocValues\":true},{\"name\":\"service\",\"type\":\"string\",\"esTypes\":[\"text\"],\"count\":2,\"scripted\":false,\"searchable\":true,\"aggregatable\":false,\"readFromDocValues\":false},{\"name\":\"service.keyword\",\"type\":\"string\",\"esTypes\":[\"keyword\"],\"count\":0,\"scripted\":false,\"searchable\":true,\"aggregatable\":true,\"readFromDocValues\":true,\"parent\":\"service\",\"subType\":\"multi\"},{\"name\":\"source\",\"type\":\"string\",\"esTypes\":[\"text\"],\"count\":1,\"scripted\":false,\"searchable\":true,\"aggregatable\":false,\"readFromDocValues\":false},{\"name\":\"source.keyword\",\"type\":\"string\",\"esTypes\":[\"keyword\"],\"count\":0,\"scripted\":false,\"searchable\":true,\"aggregatable\":true,\"readFromDocValues\":true,\"parent\":\"source\",\"subType\":\"multi\"},{\"name\":\"sshSoftwareVersion\",\"type\":\"string\",\"esTypes\":[\"text\"],\"count\":0,\"scripted\":false,\"searchable\":true,\"aggregatable\":false,\"readFromDocValues\":false},{\"name\":\"sshSoftwareVersion.keyword\",\"type\":\"string\",\"esTypes\":[\"keyword\"],\"count\":0,\"scripted\":false,\"searchable\":true,\"aggregatable\":true,\"readFromDocValues\":true,\"parent\":\"sshSoftwareVersion\",\"subType\":\"multi\"},{\"name\":\"sshVersion\",\"type\":\"string\",\"esTypes\":[\"text\"],\"count\":0,\"scripted\":false,\"searchable\":true,\"aggregatable\":false,\"readFromDocValues\":false},{\"name\":\"sshVersion.keyword\",\"type\":\"string\",\"esTypes\":[\"keyword\"],\"count\":0,\"scripted\":false,\"searchable\":true,\"aggregatable\":true,\"readFromDocValues\":true,\"parent\":\"sshVersion\",\"subType\":\"multi\"},{\"name\":\"ssh_software_version\",\"type\":\"string\",\"esTypes\":[\"text\"],\"count\":0,\"scripted\":false,\"searchable\":true,\"aggregatable\":false,\"readFromDocValues\":false},{\"name\":\"ssh_software_version.keyword\",\"type\":\"string\",\"esTypes\":[\"keyword\"],\"count\":0,\"scripted\":false,\"searchable\":true,\"aggregatable\":true,\"readFromDocValues\":true,\"parent\":\"ssh_software_version\",\"subType\":\"multi\"},{\"name\":\"ssh_version\",\"type\":\"string\",\"esTypes\":[\"text\"],\"count\":0,\"scripted\":false,\"searchable\":true,\"aggregatable\":false,\"readFromDocValues\":false},{\"name\":\"ssh_version.keyword\",\"type\":\"string\",\"esTypes\":[\"keyword\"],\"count\":0,\"scripted\":false,\"searchable\":true,\"aggregatable\":true,\"readFromDocValues\":true,\"parent\":\"ssh_version\",\"subType\":\"multi\"}]","timeFieldName":"date","title":"datos*"},"id":"b4f59db0-8a4a-11ea-995b-5fad58e4d75c","migrationVersion":{"index-pattern":"6.5.0"},"references":[],"type":"index-pattern","updated_at":"2020-05-28T16:39:11.756Z","version":"WzQsMV0="}
{"attributes":{"description":"","kibanaSavedObjectMeta":{"searchSourceJSON":"{\"query\":{\"query\":\"\",\"language\":\"kuery\"},\"filter\":[],\"indexRefName\":\"kibanaSavedObjectMeta.searchSourceJSON.index\"}"},"title":"Services","uiStateJSON":"{}","version":1,"visState":"{\"title\":\"Services\",\"type\":\"pie\",\"params\":{\"type\":\"pie\",\"addTooltip\":true,\"addLegend\":true,\"legendPosition\":\"right\",\"isDonut\":false,\"labels\":{\"show\":true,\"values\":true,\"last_level\":true,\"truncate\":100},\"dimensions\":{\"metric\":{\"accessor\":1,\"format\":{\"id\":\"number\"},\"params\":{},\"aggType\":\"count\"},\"buckets\":[{\"accessor\":0,\"format\":{\"id\":\"terms\",\"params\":{\"id\":\"string\",\"otherBucketLabel\":\"Other\",\"missingBucketLabel\":\"Missing\"}},\"params\":{},\"aggType\":\"terms\"}]}},\"aggs\":[{\"id\":\"1\",\"enabled\":true,\"type\":\"count\",\"schema\":\"metric\",\"params\":{}},{\"id\":\"2\",\"enabled\":true,\"type\":\"terms\",\"schema\":\"segment\",\"params\":{\"field\":\"service.keyword\",\"orderBy\":\"1\",\"order\":\"desc\",\"size\":50,\"otherBucket\":false,\"otherBucketLabel\":\"Other\",\"missingBucket\":false,\"missingBucketLabel\":\"Missing\",\"customLabel\":\"Services\"}}]}"},"id":"f314c8a0-8a4a-11ea-995b-5fad58e4d75c","migrationVersion":{"visualization":"7.4.2"},"references":[{"id":"b4f59db0-8a4a-11ea-995b-5fad58e4d75c","name":"kibanaSavedObjectMeta.searchSourceJSON.index","type":"index-pattern"}],"type":"visualization","updated_at":"2020-05-28T16:39:11.756Z","version":"WzUsMV0="}
{"attributes":{"description":"","kibanaSavedObjectMeta":{"searchSourceJSON":"{\"query\":{\"query\":\"\",\"language\":\"kuery\"},\"filter\":[],\"indexRefName\":\"kibanaSavedObjectMeta.searchSourceJSON.index\"}"},"title":"Service total count","uiStateJSON":"{}","version":1,"visState":"{\"title\":\"Service total count\",\"type\":\"metric\",\"params\":{\"metric\":{\"percentageMode\":false,\"useRanges\":false,\"colorSchema\":\"Blues\",\"metricColorMode\":\"Background\",\"colorsRange\":[{\"type\":\"range\",\"from\":0,\"to\":20},{\"type\":\"range\",\"from\":20,\"to\":50},{\"type\":\"range\",\"from\":50,\"to\":200},{\"type\":\"range\",\"from\":200,\"to\":500},{\"type\":\"range\",\"from\":500,\"to\":2000},{\"type\":\"range\",\"from\":2000,\"to\":5000},{\"type\":\"range\",\"from\":5000,\"to\":10000},{\"type\":\"range\",\"from\":10000,\"to\":25000},{\"from\":25000,\"to\":50000},{\"from\":50000,\"to\":50000000}],\"labels\":{\"show\":true},\"invertColors\":false,\"style\":{\"bgFill\":\"#000\",\"bgColor\":true,\"labelColor\":false,\"subText\":\"\",\"fontSize\":60}},\"dimensions\":{\"metrics\":[{\"type\":\"vis_dimension\",\"accessor\":0,\"format\":{\"id\":\"number\",\"params\":{}}}]},\"addTooltip\":true,\"addLegend\":false,\"type\":\"metric\"},\"aggs\":[{\"id\":\"1\",\"enabled\":true,\"type\":\"count\",\"schema\":\"metric\",\"params\":{}}]}"},"id":"8d740d80-a1bf-11ea-8d5d-39814bb06ebc","migrationVersion":{"visualization":"7.4.2"},"references":[{"id":"b4f59db0-8a4a-11ea-995b-5fad58e4d75c","name":"kibanaSavedObjectMeta.searchSourceJSON.index","type":"index-pattern"}],"type":"visualization","updated_at":"2020-05-29T15:42:31.203Z","version":"WzEyOCwyXQ=="}
{"attributes":{"description":"","kibanaSavedObjectMeta":{"searchSourceJSON":"{\"query\":{\"query\":\"\",\"language\":\"kuery\"},\"filter\":[],\"indexRefName\":\"kibanaSavedObjectMeta.searchSourceJSON.index\"}"},"title":"Service total tags","uiStateJSON":"{}","version":1,"visState":"{\"title\":\"Service total tags\",\"type\":\"tagcloud\",\"params\":{\"scale\":\"linear\",\"orientation\":\"single\",\"minFontSize\":18,\"maxFontSize\":72,\"showLabel\":true,\"metric\":{\"type\":\"vis_dimension\",\"accessor\":1,\"format\":{\"id\":\"string\",\"params\":{}}},\"bucket\":{\"type\":\"vis_dimension\",\"accessor\":0,\"format\":{\"id\":\"terms\",\"params\":{\"id\":\"string\",\"otherBucketLabel\":\"Other\",\"missingBucketLabel\":\"Missing\"}}}},\"aggs\":[{\"id\":\"1\",\"enabled\":true,\"type\":\"count\",\"schema\":\"metric\",\"params\":{}},{\"id\":\"2\",\"enabled\":true,\"type\":\"terms\",\"schema\":\"segment\",\"params\":{\"field\":\"service.keyword\",\"orderBy\":\"1\",\"order\":\"desc\",\"size\":50,\"otherBucket\":false,\"otherBucketLabel\":\"Other\",\"missingBucket\":false,\"missingBucketLabel\":\"Missing\",\"customLabel\":\"Services\"}}]}"},"id":"999c1530-a1bf-11ea-8d5d-39814bb06ebc","migrationVersion":{"visualization":"7.4.2"},"references":[{"id":"b4f59db0-8a4a-11ea-995b-5fad58e4d75c","name":"kibanaSavedObjectMeta.searchSourceJSON.index","type":"index-pattern"}],"type":"visualization","updated_at":"2020-05-29T15:18:55.414Z","version":"WzcyLDJd"}
{"attributes":{"description":"","kibanaSavedObjectMeta":{"searchSourceJSON":"{\"query\":{\"query\":\"\",\"language\":\"kuery\"},\"filter\":[],\"indexRefName\":\"kibanaSavedObjectMeta.searchSourceJSON.index\"}"},"title":"Service count","uiStateJSON":"{}","version":1,"visState":"{\"title\":\"Service count\",\"type\":\"metric\",\"params\":{\"metric\":{\"percentageMode\":false,\"useRanges\":false,\"colorSchema\":\"Blues\",\"metricColorMode\":\"Background\",\"colorsRange\":[{\"type\":\"range\",\"from\":0,\"to\":20},{\"type\":\"range\",\"from\":20,\"to\":50},{\"type\":\"range\",\"from\":50,\"to\":200},{\"type\":\"range\",\"from\":200,\"to\":500},{\"type\":\"range\",\"from\":500,\"to\":2000},{\"type\":\"range\",\"from\":2000,\"to\":5000},{\"type\":\"range\",\"from\":5000,\"to\":10000},{\"type\":\"range\",\"from\":10000,\"to\":25000},{\"from\":25000,\"to\":50000},{\"from\":50000,\"to\":50000000}],\"labels\":{\"show\":true},\"invertColors\":false,\"style\":{\"bgFill\":\"#000\",\"bgColor\":true,\"labelColor\":false,\"subText\":\"\",\"fontSize\":60}},\"dimensions\":{\"metrics\":[{\"type\":\"vis_dimension\",\"accessor\":1,\"format\":{\"id\":\"number\",\"params\":{}}}],\"bucket\":{\"type\":\"vis_dimension\",\"accessor\":0,\"format\":{\"id\":\"terms\",\"params\":{\"id\":\"string\",\"otherBucketLabel\":\"Other\",\"missingBucketLabel\":\"Missing\"}}}},\"addTooltip\":true,\"addLegend\":false,\"type\":\"metric\"},\"aggs\":[{\"id\":\"1\",\"enabled\":true,\"type\":\"count\",\"schema\":\"metric\",\"params\":{}},{\"id\":\"2\",\"enabled\":true,\"type\":\"terms\",\"schema\":\"group\",\"params\":{\"field\":\"service.keyword\",\"orderBy\":\"1\",\"order\":\"desc\",\"size\":50,\"otherBucket\":false,\"otherBucketLabel\":\"Other\",\"missingBucket\":false,\"missingBucketLabel\":\"Missing\",\"customLabel\":\"Service count\"}}]}"},"id":"1ca754d0-8a4b-11ea-995b-5fad58e4d75c","migrationVersion":{"visualization":"7.4.2"},"references":[{"id":"b4f59db0-8a4a-11ea-995b-5fad58e4d75c","name":"kibanaSavedObjectMeta.searchSourceJSON.index","type":"index-pattern"}],"type":"visualization","updated_at":"2020-05-29T15:42:27.137Z","version":"WzEyNywyXQ=="}
{"attributes":{"description":"","kibanaSavedObjectMeta":{"searchSourceJSON":"{\"query\":{\"query\":\"\",\"language\":\"kuery\"},\"filter\":[]}"},"title":"SSH Title","uiStateJSON":"{}","version":1,"visState":"{\"title\":\"SSH Title\",\"type\":\"markdown\",\"params\":{\"fontSize\":12,\"openLinksInNewTab\":false,\"markdown\":\"# **SSH** RESULTS\\n\"},\"aggs\":[]}"},"id":"24684f30-a1c0-11ea-8d5d-39814bb06ebc","migrationVersion":{"visualization":"7.4.2"},"references":[],"type":"visualization","updated_at":"2020-05-29T15:22:00.483Z","version":"Wzc1LDJd"}
{"attributes":{"fields":"[{\"name\":\"_id\",\"type\":\"string\",\"esTypes\":[\"_id\"],\"count\":0,\"scripted\":false,\"searchable\":true,\"aggregatable\":true,\"readFromDocValues\":false},{\"name\":\"_index\",\"type\":\"string\",\"esTypes\":[\"_index\"],\"count\":0,\"scripted\":false,\"searchable\":true,\"aggregatable\":true,\"readFromDocValues\":false},{\"name\":\"_score\",\"type\":\"number\",\"count\":0,\"scripted\":false,\"searchable\":false,\"aggregatable\":false,\"readFromDocValues\":false},{\"name\":\"_source\",\"type\":\"_source\",\"esTypes\":[\"_source\"],\"count\":0,\"scripted\":false,\"searchable\":false,\"aggregatable\":false,\"readFromDocValues\":false},{\"name\":\"_type\",\"type\":\"string\",\"esTypes\":[\"_type\"],\"count\":0,\"scripted\":false,\"searchable\":true,\"aggregatable\":true,\"readFromDocValues\":false},{\"name\":\"category\",\"type\":\"string\",\"esTypes\":[\"text\"],\"count\":0,\"scripted\":false,\"searchable\":true,\"aggregatable\":false,\"readFromDocValues\":false},{\"name\":\"category.keyword\",\"type\":\"string\",\"esTypes\":[\"keyword\"],\"count\":0,\"scripted\":false,\"searchable\":true,\"aggregatable\":true,\"readFromDocValues\":true,\"parent\":\"category\",\"subType\":\"multi\"},{\"name\":\"ciphers\",\"type\":\"string\",\"esTypes\":[\"text\"],\"count\":0,\"scripted\":false,\"searchable\":true,\"aggregatable\":false,\"readFromDocValues\":false},{\"name\":\"ciphers.keyword\",\"type\":\"string\",\"esTypes\":[\"keyword\"],\"count\":0,\"scripted\":false,\"searchable\":true,\"aggregatable\":true,\"readFromDocValues\":true,\"parent\":\"ciphers\",\"subType\":\"multi\"},{\"name\":\"compression\",\"type\":\"string\",\"esTypes\":[\"text\"],\"count\":0,\"scripted\":false,\"searchable\":true,\"aggregatable\":false,\"readFromDocValues\":false},{\"name\":\"compression.keyword\",\"type\":\"string\",\"esTypes\":[\"keyword\"],\"count\":0,\"scripted\":false,\"searchable\":true,\"aggregatable\":true,\"readFromDocValues\":true,\"parent\":\"compression\",\"subType\":\"multi\"},{\"name\":\"date\",\"type\":\"date\",\"esTypes\":[\"date\"],\"count\":0,\"scripted\":false,\"searchable\":true,\"aggregatable\":true,\"readFromDocValues\":true},{\"name\":\"description\",\"type\":\"string\",\"esTypes\":[\"text\"],\"count\":0,\"scripted\":false,\"searchable\":true,\"aggregatable\":false,\"readFromDocValues\":false},{\"name\":\"description.keyword\",\"type\":\"string\",\"esTypes\":[\"keyword\"],\"count\":0,\"scripted\":false,\"searchable\":true,\"aggregatable\":true,\"readFromDocValues\":true,\"parent\":\"description\",\"subType\":\"multi\"},{\"name\":\"host\",\"type\":\"string\",\"esTypes\":[\"text\"],\"count\":0,\"scripted\":false,\"searchable\":true,\"aggregatable\":false,\"readFromDocValues\":false},{\"name\":\"host.keyword\",\"type\":\"string\",\"esTypes\":[\"keyword\"],\"count\":0,\"scripted\":false,\"searchable\":true,\"aggregatable\":true,\"readFromDocValues\":true,\"parent\":\"host\",\"subType\":\"multi\"},{\"name\":\"host_key_fingerprint\",\"type\":\"string\",\"esTypes\":[\"text\"],\"count\":0,\"scripted\":false,\"searchable\":true,\"aggregatable\":false,\"readFromDocValues\":false},{\"name\":\"host_key_fingerprint.keyword\",\"type\":\"string\",\"esTypes\":[\"keyword\"],\"count\":0,\"scripted\":false,\"searchable\":true,\"aggregatable\":true,\"readFromDocValues\":true,\"parent\":\"host_key_fingerprint\",\"subType\":\"multi\"},{\"name\":\"host_key_type\",\"type\":\"string\",\"esTypes\":[\"text\"],\"count\":0,\"scripted\":false,\"searchable\":true,\"aggregatable\":false,\"readFromDocValues\":false},{\"name\":\"host_key_type.keyword\",\"type\":\"string\",\"esTypes\":[\"keyword\"],\"count\":0,\"scripted\":false,\"searchable\":true,\"aggregatable\":true,\"readFromDocValues\":true,\"parent\":\"host_key_type\",\"subType\":\"multi\"},{\"name\":\"kex_algo\",\"type\":\"string\",\"esTypes\":[\"text\"],\"count\":0,\"scripted\":false,\"searchable\":true,\"aggregatable\":false,\"readFromDocValues\":false},{\"name\":\"kex_algo.keyword\",\"type\":\"string\",\"esTypes\":[\"keyword\"],\"count\":0,\"scripted\":false,\"searchable\":true,\"aggregatable\":true,\"readFromDocValues\":true,\"parent\":\"kex_algo\",\"subType\":\"multi\"},{\"name\":\"key_algo\",\"type\":\"string\",\"esTypes\":[\"text\"],\"count\":0,\"scripted\":false,\"searchable\":true,\"aggregatable\":false,\"readFromDocValues\":false},{\"name\":\"key_algo.keyword\",\"type\":\"string\",\"esTypes\":[\"keyword\"],\"count\":0,\"scripted\":false,\"searchable\":true,\"aggregatable\":true,\"readFromDocValues\":true,\"parent\":\"key_algo\",\"subType\":\"multi\"},{\"name\":\"macs\",\"type\":\"string\",\"esTypes\":[\"text\"],\"count\":0,\"scripted\":false,\"searchable\":true,\"aggregatable\":false,\"readFromDocValues\":false},{\"name\":\"macs.keyword\",\"type\":\"string\",\"esTypes\":[\"keyword\"],\"count\":0,\"scripted\":false,\"searchable\":true,\"aggregatable\":true,\"readFromDocValues\":true,\"parent\":\"macs\",\"subType\":\"multi\"},{\"name\":\"name\",\"type\":\"string\",\"esTypes\":[\"text\"],\"count\":0,\"scripted\":false,\"searchable\":true,\"aggregatable\":false,\"readFromDocValues\":false},{\"name\":\"name.keyword\",\"type\":\"string\",\"esTypes\":[\"keyword\"],\"count\":0,\"scripted\":false,\"searchable\":true,\"aggregatable\":true,\"readFromDocValues\":true,\"parent\":\"name\",\"subType\":\"multi\"},{\"name\":\"port\",\"type\":\"number\",\"esTypes\":[\"short\"],\"count\":0,\"scripted\":false,\"searchable\":true,\"aggregatable\":true,\"readFromDocValues\":true},{\"name\":\"server\",\"type\":\"string\",\"esTypes\":[\"text\"],\"count\":0,\"scripted\":false,\"searchable\":true,\"aggregatable\":false,\"readFromDocValues\":false},{\"name\":\"server.keyword\",\"type\":\"string\",\"esTypes\":[\"keyword\"],\"count\":0,\"scripted\":false,\"searchable\":true,\"aggregatable\":true,\"readFromDocValues\":true,\"parent\":\"server\",\"subType\":\"multi\"},{\"name\":\"service\",\"type\":\"string\",\"esTypes\":[\"text\"],\"count\":0,\"scripted\":false,\"searchable\":true,\"aggregatable\":false,\"readFromDocValues\":false},{\"name\":\"service.keyword\",\"type\":\"string\",\"esTypes\":[\"keyword\"],\"count\":0,\"scripted\":false,\"searchable\":true,\"aggregatable\":true,\"readFromDocValues\":true,\"parent\":\"service\",\"subType\":\"multi\"},{\"name\":\"source\",\"type\":\"string\",\"esTypes\":[\"text\"],\"count\":0,\"scripted\":false,\"searchable\":true,\"aggregatable\":false,\"readFromDocValues\":false},{\"name\":\"source.keyword\",\"type\":\"string\",\"esTypes\":[\"keyword\"],\"count\":0,\"scripted\":false,\"searchable\":true,\"aggregatable\":true,\"readFromDocValues\":true,\"parent\":\"source\",\"subType\":\"multi\"},{\"name\":\"ssh_software_version\",\"type\":\"string\",\"esTypes\":[\"text\"],\"count\":0,\"scripted\":false,\"searchable\":true,\"aggregatable\":false,\"readFromDocValues\":false},{\"name\":\"ssh_software_version.keyword\",\"type\":\"string\",\"esTypes\":[\"keyword\"],\"count\":0,\"scripted\":false,\"searchable\":true,\"aggregatable\":true,\"readFromDocValues\":true,\"parent\":\"ssh_software_version\",\"subType\":\"multi\"},{\"name\":\"ssh_version\",\"type\":\"string\",\"esTypes\":[\"text\"],\"count\":0,\"scripted\":false,\"searchable\":true,\"aggregatable\":false,\"readFromDocValues\":false},{\"name\":\"ssh_version.keyword\",\"type\":\"string\",\"esTypes\":[\"keyword\"],\"count\":0,\"scripted\":false,\"searchable\":true,\"aggregatable\":true,\"readFromDocValues\":true,\"parent\":\"ssh_version\",\"subType\":\"multi\"}]","timeFieldName":"date","title":"datos_ssh"},"id":"da07f8f0-8a4a-11ea-995b-5fad58e4d75c","migrationVersion":{"index-pattern":"6.5.0"},"references":[],"type":"index-pattern","updated_at":"2020-05-28T16:54:30.798Z","version":"WzMyLDFd"}
{"attributes":{"description":"","kibanaSavedObjectMeta":{"searchSourceJSON":"{\"query\":{\"query\":\"\",\"language\":\"kuery\"},\"filter\":[],\"indexRefName\":\"kibanaSavedObjectMeta.searchSourceJSON.index\"}"},"title":"SSH Count","uiStateJSON":"{}","version":1,"visState":"{\"title\":\"SSH Count\",\"type\":\"metric\",\"params\":{\"metric\":{\"percentageMode\":false,\"useRanges\":false,\"colorSchema\":\"Green to Red\",\"metricColorMode\":\"None\",\"colorsRange\":[{\"type\":\"range\",\"from\":0,\"to\":10000}],\"labels\":{\"show\":true},\"invertColors\":false,\"style\":{\"bgFill\":\"#000\",\"bgColor\":false,\"labelColor\":false,\"subText\":\"\",\"fontSize\":40}},\"dimensions\":{\"metrics\":[{\"type\":\"vis_dimension\",\"accessor\":0,\"format\":{\"id\":\"number\",\"params\":{}}}]},\"addTooltip\":true,\"addLegend\":false,\"type\":\"metric\"},\"aggs\":[{\"id\":\"1\",\"enabled\":true,\"type\":\"count\",\"schema\":\"metric\",\"params\":{\"customLabel\":\"SSH Count\"}}]}"},"id":"446390b0-a1c0-11ea-8d5d-39814bb06ebc","migrationVersion":{"visualization":"7.4.2"},"references":[{"id":"da07f8f0-8a4a-11ea-995b-5fad58e4d75c","name":"kibanaSavedObjectMeta.searchSourceJSON.index","type":"index-pattern"}],"type":"visualization","updated_at":"2020-05-29T15:36:26.958Z","version":"WzEwOSwyXQ=="}
{"attributes":{"description":"","kibanaSavedObjectMeta":{"searchSourceJSON":"{\"query\":{\"query\":\"\",\"language\":\"kuery\"},\"filter\":[],\"indexRefName\":\"kibanaSavedObjectMeta.searchSourceJSON.index\"}"},"title":"SSH Versions","uiStateJSON":"{}","version":1,"visState":"{\"title\":\"SSH Versions\",\"type\":\"pie\",\"params\":{\"type\":\"pie\",\"addTooltip\":true,\"addLegend\":true,\"legendPosition\":\"right\",\"isDonut\":false,\"labels\":{\"show\":true,\"values\":true,\"last_level\":true,\"truncate\":100},\"dimensions\":{\"metric\":{\"accessor\":1,\"format\":{\"id\":\"number\"},\"params\":{},\"aggType\":\"count\"},\"buckets\":[{\"accessor\":0,\"format\":{\"id\":\"terms\",\"params\":{\"id\":\"string\",\"otherBucketLabel\":\"Other\",\"missingBucketLabel\":\"Missing\"}},\"params\":{},\"aggType\":\"terms\"}]}},\"aggs\":[{\"id\":\"1\",\"enabled\":true,\"type\":\"count\",\"schema\":\"metric\",\"params\":{}},{\"id\":\"2\",\"enabled\":true,\"type\":\"terms\",\"schema\":\"segment\",\"params\":{\"field\":\"ssh_version.keyword\",\"orderBy\":\"1\",\"order\":\"desc\",\"size\":50,\"otherBucket\":false,\"otherBucketLabel\":\"Other\",\"missingBucket\":false,\"missingBucketLabel\":\"Missing\"}}]}"},"id":"14945590-8b0e-11ea-9f84-61d28772cfec","migrationVersion":{"visualization":"7.4.2"},"references":[{"id":"da07f8f0-8a4a-11ea-995b-5fad58e4d75c","name":"kibanaSavedObjectMeta.searchSourceJSON.index","type":"index-pattern"}],"type":"visualization","updated_at":"2020-05-28T16:55:22.365Z","version":"WzM3LDFd"}
{"attributes":{"description":"","kibanaSavedObjectMeta":{"searchSourceJSON":"{\"query\":{\"query\":\"\",\"language\":\"kuery\"},\"filter\":[],\"indexRefName\":\"kibanaSavedObjectMeta.searchSourceJSON.index\"}"},"title":"SSH Software","uiStateJSON":"{}","version":1,"visState":"{\"title\":\"SSH Software\",\"type\":\"pie\",\"params\":{\"type\":\"pie\",\"addTooltip\":true,\"addLegend\":true,\"legendPosition\":\"right\",\"isDonut\":false,\"labels\":{\"show\":true,\"values\":true,\"last_level\":true,\"truncate\":100},\"dimensions\":{\"metric\":{\"accessor\":1,\"format\":{\"id\":\"number\"},\"params\":{},\"aggType\":\"count\"},\"buckets\":[{\"accessor\":0,\"format\":{\"id\":\"terms\",\"params\":{\"id\":\"string\",\"otherBucketLabel\":\"Other\",\"missingBucketLabel\":\"Missing\"}},\"params\":{},\"aggType\":\"terms\"}]}},\"aggs\":[{\"id\":\"1\",\"enabled\":true,\"type\":\"count\",\"schema\":\"metric\",\"params\":{}},{\"id\":\"2\",\"enabled\":true,\"type\":\"terms\",\"schema\":\"segment\",\"params\":{\"field\":\"ssh_software_version.keyword\",\"orderBy\":\"1\",\"order\":\"desc\",\"size\":50,\"otherBucket\":false,\"otherBucketLabel\":\"Other\",\"missingBucket\":false,\"missingBucketLabel\":\"Missing\"}}]}"},"id":"386cd140-8b0e-11ea-9f84-61d28772cfec","migrationVersion":{"visualization":"7.4.2"},"references":[{"id":"da07f8f0-8a4a-11ea-995b-5fad58e4d75c","name":"kibanaSavedObjectMeta.searchSourceJSON.index","type":"index-pattern"}],"type":"visualization","updated_at":"2020-05-28T16:55:06.734Z","version":"WzM0LDFd"}
{"attributes":{"description":"","kibanaSavedObjectMeta":{"searchSourceJSON":"{\"query\":{\"query\":\"\",\"language\":\"kuery\"},\"filter\":[]}"},"title":"HTTP Title","uiStateJSON":"{}","version":1,"visState":"{\"title\":\"HTTP Title\",\"type\":\"markdown\",\"params\":{\"fontSize\":12,\"openLinksInNewTab\":false,\"markdown\":\"# **HTTP** RESULTS\"},\"aggs\":[]}"},"id":"2c4ae500-a1c0-11ea-8d5d-39814bb06ebc","migrationVersion":{"visualization":"7.4.2"},"references":[],"type":"visualization","updated_at":"2020-05-29T15:22:13.712Z","version":"Wzc2LDJd"}
{"attributes":{"fields":"[{\"name\":\"_id\",\"type\":\"string\",\"esTypes\":[\"_id\"],\"count\":0,\"scripted\":false,\"searchable\":true,\"aggregatable\":true,\"readFromDocValues\":false},{\"name\":\"_index\",\"type\":\"string\",\"esTypes\":[\"_index\"],\"count\":0,\"scripted\":false,\"searchable\":true,\"aggregatable\":true,\"readFromDocValues\":false},{\"name\":\"_score\",\"type\":\"number\",\"count\":0,\"scripted\":false,\"searchable\":false,\"aggregatable\":false,\"readFromDocValues\":false},{\"name\":\"_source\",\"type\":\"_source\",\"esTypes\":[\"_source\"],\"count\":0,\"scripted\":false,\"searchable\":false,\"aggregatable\":false,\"readFromDocValues\":false},{\"name\":\"_type\",\"type\":\"string\",\"esTypes\":[\"_type\"],\"count\":0,\"scripted\":false,\"searchable\":true,\"aggregatable\":true,\"readFromDocValues\":false},{\"name\":\"category\",\"type\":\"string\",\"esTypes\":[\"text\"],\"count\":0,\"scripted\":false,\"searchable\":true,\"aggregatable\":false,\"readFromDocValues\":false},{\"name\":\"category.keyword\",\"type\":\"string\",\"esTypes\":[\"keyword\"],\"count\":0,\"scripted\":false,\"searchable\":true,\"aggregatable\":true,\"readFromDocValues\":true,\"parent\":\"category\",\"subType\":\"multi\"},{\"name\":\"date\",\"type\":\"date\",\"esTypes\":[\"date\"],\"count\":0,\"scripted\":false,\"searchable\":true,\"aggregatable\":true,\"readFromDocValues\":true},{\"name\":\"description\",\"type\":\"string\",\"esTypes\":[\"text\"],\"count\":0,\"scripted\":false,\"searchable\":true,\"aggregatable\":false,\"readFromDocValues\":false},{\"name\":\"description.keyword\",\"type\":\"string\",\"esTypes\":[\"keyword\"],\"count\":0,\"scripted\":false,\"searchable\":true,\"aggregatable\":true,\"readFromDocValues\":true,\"parent\":\"description\",\"subType\":\"multi\"},{\"name\":\"headers\",\"type\":\"string\",\"esTypes\":[\"text\"],\"count\":0,\"scripted\":false,\"searchable\":true,\"aggregatable\":false,\"readFromDocValues\":false},{\"name\":\"headers.keyword\",\"type\":\"string\",\"esTypes\":[\"keyword\"],\"count\":0,\"scripted\":false,\"searchable\":true,\"aggregatable\":true,\"readFromDocValues\":true,\"parent\":\"headers\",\"subType\":\"multi\"},{\"name\":\"host\",\"type\":\"string\",\"esTypes\":[\"text\"],\"count\":0,\"scripted\":false,\"searchable\":true,\"aggregatable\":false,\"readFromDocValues\":false},{\"name\":\"host.keyword\",\"type\":\"string\",\"esTypes\":[\"keyword\"],\"count\":0,\"scripted\":false,\"searchable\":true,\"aggregatable\":true,\"readFromDocValues\":true,\"parent\":\"host\",\"subType\":\"multi\"},{\"name\":\"name\",\"type\":\"string\",\"esTypes\":[\"text\"],\"count\":0,\"scripted\":false,\"searchable\":true,\"aggregatable\":false,\"readFromDocValues\":false},{\"name\":\"name.keyword\",\"type\":\"string\",\"esTypes\":[\"keyword\"],\"count\":0,\"scripted\":false,\"searchable\":true,\"aggregatable\":true,\"readFromDocValues\":true,\"parent\":\"name\",\"subType\":\"multi\"},{\"name\":\"port\",\"type\":\"number\",\"esTypes\":[\"short\"],\"count\":0,\"scripted\":false,\"searchable\":true,\"aggregatable\":true,\"readFromDocValues\":true},{\"name\":\"server\",\"type\":\"string\",\"esTypes\":[\"text\"],\"count\":0,\"scripted\":false,\"searchable\":true,\"aggregatable\":false,\"readFromDocValues\":false},{\"name\":\"server.keyword\",\"type\":\"string\",\"esTypes\":[\"keyword\"],\"count\":0,\"scripted\":false,\"searchable\":true,\"aggregatable\":true,\"readFromDocValues\":true,\"parent\":\"server\",\"subType\":\"multi\"},{\"name\":\"service\",\"type\":\"string\",\"esTypes\":[\"text\"],\"count\":0,\"scripted\":false,\"searchable\":true,\"aggregatable\":false,\"readFromDocValues\":false},{\"name\":\"service.keyword\",\"type\":\"string\",\"esTypes\":[\"keyword\"],\"count\":0,\"scripted\":false,\"searchable\":true,\"aggregatable\":true,\"readFromDocValues\":true,\"parent\":\"service\",\"subType\":\"multi\"},{\"name\":\"source\",\"type\":\"string\",\"esTypes\":[\"text\"],\"count\":0,\"scripted\":false,\"searchable\":true,\"aggregatable\":false,\"readFromDocValues\":false},{\"name\":\"source.keyword\",\"type\":\"string\",\"esTypes\":[\"keyword\"],\"count\":0,\"scripted\":false,\"searchable\":true,\"aggregatable\":true,\"readFromDocValues\":true,\"parent\":\"source\",\"subType\":\"multi\"}]","timeFieldName":"date","title":"datos_http"},"id":"c0be9570-8a4a-11ea-995b-5fad58e4d75c","migrationVersion":{"index-pattern":"6.5.0"},"references":[],"type":"index-pattern","updated_at":"2020-05-28T16:39:11.756Z","version":"WzEwLDFd"}
{"attributes":{"description":"","kibanaSavedObjectMeta":{"searchSourceJSON":"{\"query\":{\"query\":\"\",\"language\":\"kuery\"},\"filter\":[],\"indexRefName\":\"kibanaSavedObjectMeta.searchSourceJSON.index\"}"},"title":"HTTP Count","uiStateJSON":"{}","version":1,"visState":"{\"title\":\"HTTP Count\",\"type\":\"metric\",\"params\":{\"metric\":{\"percentageMode\":false,\"useRanges\":false,\"colorSchema\":\"Green to Red\",\"metricColorMode\":\"None\",\"colorsRange\":[{\"type\":\"range\",\"from\":0,\"to\":10000}],\"labels\":{\"show\":true},\"invertColors\":false,\"style\":{\"bgFill\":\"#000\",\"bgColor\":false,\"labelColor\":false,\"subText\":\"\",\"fontSize\":40}},\"dimensions\":{\"metrics\":[{\"type\":\"vis_dimension\",\"accessor\":0,\"format\":{\"id\":\"number\",\"params\":{}}}]},\"addTooltip\":true,\"addLegend\":false,\"type\":\"metric\"},\"aggs\":[{\"id\":\"1\",\"enabled\":true,\"type\":\"count\",\"schema\":\"metric\",\"params\":{\"customLabel\":\"HTTP Count\"}}]}"},"id":"524de1d0-a1c0-11ea-8d5d-39814bb06ebc","migrationVersion":{"visualization":"7.4.2"},"references":[{"id":"c0be9570-8a4a-11ea-995b-5fad58e4d75c","name":"kibanaSavedObjectMeta.searchSourceJSON.index","type":"index-pattern"}],"type":"visualization","updated_at":"2020-05-29T15:36:32.471Z","version":"WzExMCwyXQ=="}
{"attributes":{"description":"","kibanaSavedObjectMeta":{"searchSourceJSON":"{\"query\":{\"query\":\"\",\"language\":\"kuery\"},\"filter\":[],\"indexRefName\":\"kibanaSavedObjectMeta.searchSourceJSON.index\"}"},"title":"HTTP Servers","uiStateJSON":"{}","version":1,"visState":"{\"title\":\"HTTP Servers\",\"type\":\"pie\",\"params\":{\"type\":\"pie\",\"addTooltip\":true,\"addLegend\":true,\"legendPosition\":\"right\",\"isDonut\":false,\"labels\":{\"show\":true,\"values\":true,\"last_level\":true,\"truncate\":100},\"dimensions\":{\"metric\":{\"accessor\":1,\"format\":{\"id\":\"number\"},\"params\":{},\"aggType\":\"count\"},\"buckets\":[{\"accessor\":0,\"format\":{\"id\":\"terms\",\"params\":{\"id\":\"string\",\"otherBucketLabel\":\"Other\",\"missingBucketLabel\":\"Missing\"}},\"params\":{},\"aggType\":\"terms\"}]}},\"aggs\":[{\"id\":\"1\",\"enabled\":true,\"type\":\"count\",\"schema\":\"metric\",\"params\":{}},{\"id\":\"2\",\"enabled\":true,\"type\":\"terms\",\"schema\":\"segment\",\"params\":{\"field\":\"server.keyword\",\"orderBy\":\"1\",\"order\":\"desc\",\"size\":50,\"otherBucket\":false,\"otherBucketLabel\":\"Other\",\"missingBucket\":false,\"missingBucketLabel\":\"Missing\",\"customLabel\":\"HTTP Servers\"}}]}"},"id":"16583360-8b13-11ea-9f84-61d28772cfec","migrationVersion":{"visualization":"7.4.2"},"references":[{"id":"c0be9570-8a4a-11ea-995b-5fad58e4d75c","name":"kibanaSavedObjectMeta.searchSourceJSON.index","type":"index-pattern"}],"type":"visualization","updated_at":"2020-05-28T16:39:11.756Z","version":"WzExLDFd"}
{"attributes":{"description":"","kibanaSavedObjectMeta":{"searchSourceJSON":"{\"query\":{\"query\":\"\",\"language\":\"kuery\"},\"filter\":[],\"indexRefName\":\"kibanaSavedObjectMeta.searchSourceJSON.index\"}"},"title":"HTTP Categories","uiStateJSON":"{}","version":1,"visState":"{\"title\":\"HTTP Categories\",\"type\":\"histogram\",\"params\":{\"type\":\"histogram\",\"grid\":{\"categoryLines\":false},\"categoryAxes\":[{\"id\":\"CategoryAxis-1\",\"type\":\"category\",\"position\":\"bottom\",\"show\":true,\"style\":{},\"scale\":{\"type\":\"linear\"},\"labels\":{\"show\":true,\"filter\":false,\"truncate\":100,\"rotate\":75},\"title\":{}}],\"valueAxes\":[{\"id\":\"ValueAxis-1\",\"name\":\"LeftAxis-1\",\"type\":\"value\",\"position\":\"left\",\"show\":true,\"style\":{},\"scale\":{\"type\":\"linear\",\"mode\":\"normal\"},\"labels\":{\"show\":true,\"rotate\":0,\"filter\":false,\"truncate\":100},\"title\":{\"text\":\"Count\"}}],\"seriesParams\":[{\"show\":true,\"type\":\"line\",\"mode\":\"stacked\",\"data\":{\"label\":\"Count\",\"id\":\"1\"},\"valueAxis\":\"ValueAxis-1\",\"drawLinesBetweenPoints\":true,\"lineWidth\":3,\"showCircles\":true,\"interpolate\":\"cardinal\"}],\"addTooltip\":true,\"addLegend\":true,\"legendPosition\":\"top\",\"times\":[],\"addTimeMarker\":false,\"labels\":{\"show\":false},\"thresholdLine\":{\"show\":false,\"value\":10,\"width\":1,\"style\":\"full\",\"color\":\"#34130C\"},\"dimensions\":{\"x\":{\"accessor\":0,\"format\":{\"id\":\"terms\",\"params\":{\"id\":\"string\",\"otherBucketLabel\":\"Other\",\"missingBucketLabel\":\"Missing\"}},\"params\":{},\"aggType\":\"terms\"},\"y\":[{\"accessor\":1,\"format\":{\"id\":\"number\"},\"params\":{},\"aggType\":\"count\"}]}},\"aggs\":[{\"id\":\"1\",\"enabled\":true,\"type\":\"count\",\"schema\":\"metric\",\"params\":{\"customLabel\":\"\"}},{\"id\":\"2\",\"enabled\":true,\"type\":\"terms\",\"schema\":\"segment\",\"params\":{\"field\":\"category.keyword\",\"orderBy\":\"1\",\"order\":\"desc\",\"size\":500,\"otherBucket\":false,\"otherBucketLabel\":\"Other\",\"missingBucket\":false,\"missingBucketLabel\":\"Missing\",\"customLabel\":\"HTTP Categories\"}}]}"},"id":"7e389960-a1c1-11ea-8d5d-39814bb06ebc","migrationVersion":{"visualization":"7.4.2"},"references":[{"id":"c0be9570-8a4a-11ea-995b-5fad58e4d75c","name":"kibanaSavedObjectMeta.searchSourceJSON.index","type":"index-pattern"}],"type":"visualization","updated_at":"2020-05-29T15:33:35.884Z","version":"Wzk5LDJd"}
{"attributes":{"description":"","kibanaSavedObjectMeta":{"searchSourceJSON":"{\"query\":{\"query\":\"\",\"language\":\"kuery\"},\"filter\":[]}"},"title":"HTTPS Title","uiStateJSON":"{}","version":1,"visState":"{\"title\":\"HTTPS Title\",\"type\":\"markdown\",\"params\":{\"fontSize\":12,\"openLinksInNewTab\":false,\"markdown\":\"# **HTTPS** RESULTS\"},\"aggs\":[]}"},"id":"328b3c80-a1c0-11ea-8d5d-39814bb06ebc","migrationVersion":{"visualization":"7.4.2"},"references":[],"type":"visualization","updated_at":"2020-05-29T15:22:24.200Z","version":"Wzc3LDJd"}
{"attributes":{"fields":"[{\"name\":\"_id\",\"type\":\"string\",\"esTypes\":[\"_id\"],\"count\":0,\"scripted\":false,\"searchable\":true,\"aggregatable\":true,\"readFromDocValues\":false},{\"name\":\"_index\",\"type\":\"string\",\"esTypes\":[\"_index\"],\"count\":0,\"scripted\":false,\"searchable\":true,\"aggregatable\":true,\"readFromDocValues\":false},{\"name\":\"_score\",\"type\":\"number\",\"count\":0,\"scripted\":false,\"searchable\":false,\"aggregatable\":false,\"readFromDocValues\":false},{\"name\":\"_source\",\"type\":\"_source\",\"esTypes\":[\"_source\"],\"count\":0,\"scripted\":false,\"searchable\":false,\"aggregatable\":false,\"readFromDocValues\":false},{\"name\":\"_type\",\"type\":\"string\",\"esTypes\":[\"_type\"],\"count\":0,\"scripted\":false,\"searchable\":true,\"aggregatable\":true,\"readFromDocValues\":false},{\"name\":\"category\",\"type\":\"string\",\"esTypes\":[\"text\"],\"count\":0,\"scripted\":false,\"searchable\":true,\"aggregatable\":false,\"readFromDocValues\":false},{\"name\":\"category.keyword\",\"type\":\"string\",\"esTypes\":[\"keyword\"],\"count\":0,\"scripted\":false,\"searchable\":true,\"aggregatable\":true,\"readFromDocValues\":true,\"parent\":\"category\",\"subType\":\"multi\"},{\"name\":\"certificate\",\"type\":\"string\",\"esTypes\":[\"text\"],\"count\":0,\"scripted\":false,\"searchable\":true,\"aggregatable\":false,\"readFromDocValues\":false},{\"name\":\"certificate.keyword\",\"type\":\"string\",\"esTypes\":[\"keyword\"],\"count\":0,\"scripted\":false,\"searchable\":true,\"aggregatable\":true,\"readFromDocValues\":true,\"parent\":\"certificate\",\"subType\":\"multi\"},{\"name\":\"certificate_txt\",\"type\":\"string\",\"esTypes\":[\"text\"],\"count\":0,\"scripted\":false,\"searchable\":true,\"aggregatable\":false,\"readFromDocValues\":false},{\"name\":\"certificate_txt.keyword\",\"type\":\"string\",\"esTypes\":[\"keyword\"],\"count\":0,\"scripted\":false,\"searchable\":true,\"aggregatable\":true,\"readFromDocValues\":true,\"parent\":\"certificate_txt\",\"subType\":\"multi\"},{\"name\":\"date\",\"type\":\"date\",\"esTypes\":[\"date\"],\"count\":0,\"scripted\":false,\"searchable\":true,\"aggregatable\":true,\"readFromDocValues\":true},{\"name\":\"description\",\"type\":\"string\",\"esTypes\":[\"text\"],\"count\":0,\"scripted\":false,\"searchable\":true,\"aggregatable\":false,\"readFromDocValues\":false},{\"name\":\"description.keyword\",\"type\":\"string\",\"esTypes\":[\"keyword\"],\"count\":0,\"scripted\":false,\"searchable\":true,\"aggregatable\":true,\"readFromDocValues\":true,\"parent\":\"description\",\"subType\":\"multi\"},{\"name\":\"headers\",\"type\":\"string\",\"esTypes\":[\"text\"],\"count\":0,\"scripted\":false,\"searchable\":true,\"aggregatable\":false,\"readFromDocValues\":false},{\"name\":\"headers.keyword\",\"type\":\"string\",\"esTypes\":[\"keyword\"],\"count\":0,\"scripted\":false,\"searchable\":true,\"aggregatable\":true,\"readFromDocValues\":true,\"parent\":\"headers\",\"subType\":\"multi\"},{\"name\":\"host\",\"type\":\"string\",\"esTypes\":[\"text\"],\"count\":0,\"scripted\":false,\"searchable\":true,\"aggregatable\":false,\"readFromDocValues\":false},{\"name\":\"host.keyword\",\"type\":\"string\",\"esTypes\":[\"keyword\"],\"count\":0,\"scripted\":false,\"searchable\":true,\"aggregatable\":true,\"readFromDocValues\":true,\"parent\":\"host\",\"subType\":\"multi\"},{\"name\":\"name\",\"type\":\"string\",\"esTypes\":[\"text\"],\"count\":0,\"scripted\":false,\"searchable\":true,\"aggregatable\":false,\"readFromDocValues\":false},{\"name\":\"name.keyword\",\"type\":\"string\",\"esTypes\":[\"keyword\"],\"count\":0,\"scripted\":false,\"searchable\":true,\"aggregatable\":true,\"readFromDocValues\":true,\"parent\":\"name\",\"subType\":\"multi\"},{\"name\":\"port\",\"type\":\"number\",\"esTypes\":[\"short\"],\"count\":0,\"scripted\":false,\"searchable\":true,\"aggregatable\":true,\"readFromDocValues\":true},{\"name\":\"server\",\"type\":\"string\",\"esTypes\":[\"text\"],\"count\":0,\"scripted\":false,\"searchable\":true,\"aggregatable\":false,\"readFromDocValues\":false},{\"name\":\"server.keyword\",\"type\":\"string\",\"esTypes\":[\"keyword\"],\"count\":0,\"scripted\":false,\"searchable\":true,\"aggregatable\":true,\"readFromDocValues\":true,\"parent\":\"server\",\"subType\":\"multi\"},{\"name\":\"service\",\"type\":\"string\",\"esTypes\":[\"text\"],\"count\":0,\"scripted\":false,\"searchable\":true,\"aggregatable\":false,\"readFromDocValues\":false},{\"name\":\"service.keyword\",\"type\":\"string\",\"esTypes\":[\"keyword\"],\"count\":0,\"scripted\":false,\"searchable\":true,\"aggregatable\":true,\"readFromDocValues\":true,\"parent\":\"service\",\"subType\":\"multi\"},{\"name\":\"source\",\"type\":\"string\",\"esTypes\":[\"text\"],\"count\":0,\"scripted\":false,\"searchable\":true,\"aggregatable\":false,\"readFromDocValues\":false},{\"name\":\"source.keyword\",\"type\":\"string\",\"esTypes\":[\"keyword\"],\"count\":0,\"scripted\":false,\"searchable\":true,\"aggregatable\":true,\"readFromDocValues\":true,\"parent\":\"source\",\"subType\":\"multi\"}]","timeFieldName":"date","title":"datos_https"},"id":"c57c4490-8a4a-11ea-995b-5fad58e4d75c","migrationVersion":{"index-pattern":"6.5.0"},"references":[],"type":"index-pattern","updated_at":"2020-05-28T16:54:35.678Z","version":"WzMzLDFd"}
{"attributes":{"description":"","kibanaSavedObjectMeta":{"searchSourceJSON":"{\"query\":{\"query\":\"\",\"language\":\"kuery\"},\"filter\":[],\"indexRefName\":\"kibanaSavedObjectMeta.searchSourceJSON.index\"}"},"title":"HTTPs Count","uiStateJSON":"{}","version":1,"visState":"{\"title\":\"HTTPs Count\",\"type\":\"metric\",\"params\":{\"metric\":{\"percentageMode\":false,\"useRanges\":false,\"colorSchema\":\"Green to Red\",\"metricColorMode\":\"None\",\"colorsRange\":[{\"type\":\"range\",\"from\":0,\"to\":10000}],\"labels\":{\"show\":true},\"invertColors\":false,\"style\":{\"bgFill\":\"#000\",\"bgColor\":false,\"labelColor\":false,\"subText\":\"\",\"fontSize\":40}},\"dimensions\":{\"metrics\":[{\"type\":\"vis_dimension\",\"accessor\":0,\"format\":{\"id\":\"number\",\"params\":{}}}]},\"addTooltip\":true,\"addLegend\":false,\"type\":\"metric\"},\"aggs\":[{\"id\":\"1\",\"enabled\":true,\"type\":\"count\",\"schema\":\"metric\",\"params\":{\"customLabel\":\"HTTPs Count\"}}]}"},"id":"59607d70-a1c0-11ea-8d5d-39814bb06ebc","migrationVersion":{"visualization":"7.4.2"},"references":[{"id":"c57c4490-8a4a-11ea-995b-5fad58e4d75c","name":"kibanaSavedObjectMeta.searchSourceJSON.index","type":"index-pattern"}],"type":"visualization","updated_at":"2020-05-29T15:36:45.972Z","version":"WzExMSwyXQ=="}
{"attributes":{"description":"","kibanaSavedObjectMeta":{"searchSourceJSON":"{\"query\":{\"query\":\"\",\"language\":\"kuery\"},\"filter\":[],\"indexRefName\":\"kibanaSavedObjectMeta.searchSourceJSON.index\"}"},"title":"HTTPS Servers","uiStateJSON":"{}","version":1,"visState":"{\"title\":\"HTTPS Servers\",\"type\":\"pie\",\"params\":{\"type\":\"pie\",\"addTooltip\":true,\"addLegend\":true,\"legendPosition\":\"right\",\"isDonut\":false,\"labels\":{\"show\":true,\"values\":true,\"last_level\":true,\"truncate\":100},\"dimensions\":{\"metric\":{\"accessor\":1,\"format\":{\"id\":\"number\"},\"params\":{},\"aggType\":\"count\"},\"buckets\":[{\"accessor\":0,\"format\":{\"id\":\"terms\",\"params\":{\"id\":\"string\",\"otherBucketLabel\":\"Other\",\"missingBucketLabel\":\"Missing\"}},\"params\":{},\"aggType\":\"terms\"}]}},\"aggs\":[{\"id\":\"1\",\"enabled\":true,\"type\":\"count\",\"schema\":\"metric\",\"params\":{}},{\"id\":\"2\",\"enabled\":true,\"type\":\"terms\",\"schema\":\"segment\",\"params\":{\"field\":\"server.keyword\",\"orderBy\":\"1\",\"order\":\"desc\",\"size\":50,\"otherBucket\":false,\"otherBucketLabel\":\"Other\",\"missingBucket\":false,\"missingBucketLabel\":\"Missing\",\"customLabel\":\"HTTPS Servers\"}}]}"},"id":"2b56f4e0-8b13-11ea-9f84-61d28772cfec","migrationVersion":{"visualization":"7.4.2"},"references":[{"id":"c57c4490-8a4a-11ea-995b-5fad58e4d75c","name":"kibanaSavedObjectMeta.searchSourceJSON.index","type":"index-pattern"}],"type":"visualization","updated_at":"2020-05-28T16:39:11.756Z","version":"WzEzLDFd"}
{"attributes":{"description":"","kibanaSavedObjectMeta":{"searchSourceJSON":"{\"query\":{\"query\":\"\",\"language\":\"kuery\"},\"filter\":[],\"indexRefName\":\"kibanaSavedObjectMeta.searchSourceJSON.index\"}"},"title":"HTTPs Categories","uiStateJSON":"{}","version":1,"visState":"{\"title\":\"HTTPs Categories\",\"type\":\"histogram\",\"params\":{\"type\":\"histogram\",\"grid\":{\"categoryLines\":false},\"categoryAxes\":[{\"id\":\"CategoryAxis-1\",\"type\":\"category\",\"position\":\"bottom\",\"show\":true,\"style\":{},\"scale\":{\"type\":\"linear\"},\"labels\":{\"show\":true,\"filter\":false,\"truncate\":100,\"rotate\":75},\"title\":{}}],\"valueAxes\":[{\"id\":\"ValueAxis-1\",\"name\":\"LeftAxis-1\",\"type\":\"value\",\"position\":\"left\",\"show\":true,\"style\":{},\"scale\":{\"type\":\"linear\",\"mode\":\"normal\"},\"labels\":{\"show\":true,\"rotate\":0,\"filter\":false,\"truncate\":100},\"title\":{\"text\":\"Count\"}}],\"seriesParams\":[{\"show\":true,\"type\":\"line\",\"mode\":\"stacked\",\"data\":{\"label\":\"Count\",\"id\":\"1\"},\"valueAxis\":\"ValueAxis-1\",\"drawLinesBetweenPoints\":true,\"lineWidth\":3,\"showCircles\":true,\"interpolate\":\"cardinal\"}],\"addTooltip\":false,\"addLegend\":true,\"legendPosition\":\"top\",\"times\":[],\"addTimeMarker\":false,\"labels\":{\"show\":false},\"thresholdLine\":{\"show\":false,\"value\":10,\"width\":1,\"style\":\"full\",\"color\":\"#34130C\"},\"dimensions\":{\"x\":{\"accessor\":0,\"format\":{\"id\":\"terms\",\"params\":{\"id\":\"string\",\"otherBucketLabel\":\"Other\",\"missingBucketLabel\":\"Missing\"}},\"params\":{},\"aggType\":\"terms\"},\"y\":[{\"accessor\":1,\"format\":{\"id\":\"number\"},\"params\":{},\"aggType\":\"count\"}]}},\"aggs\":[{\"id\":\"1\",\"enabled\":true,\"type\":\"count\",\"schema\":\"metric\",\"params\":{}},{\"id\":\"2\",\"enabled\":true,\"type\":\"terms\",\"schema\":\"segment\",\"params\":{\"field\":\"category.keyword\",\"orderBy\":\"1\",\"order\":\"desc\",\"size\":5000,\"otherBucket\":false,\"otherBucketLabel\":\"Other\",\"missingBucket\":false,\"missingBucketLabel\":\"Missing\",\"customLabel\":\"HTTPs Categories\"}}]}"},"id":"a2daa6a0-a1c1-11ea-8d5d-39814bb06ebc","migrationVersion":{"visualization":"7.4.2"},"references":[{"id":"c57c4490-8a4a-11ea-995b-5fad58e4d75c","name":"kibanaSavedObjectMeta.searchSourceJSON.index","type":"index-pattern"}],"type":"visualization","updated_at":"2020-05-29T15:33:30.996Z","version":"Wzk4LDJd"}
{"attributes":{"description":"","kibanaSavedObjectMeta":{"searchSourceJSON":"{\"query\":{\"query\":\"\",\"language\":\"kuery\"},\"filter\":[]}"},"title":"FTP Title","uiStateJSON":"{}","version":1,"visState":"{\"title\":\"FTP Title\",\"type\":\"markdown\",\"params\":{\"fontSize\":12,\"openLinksInNewTab\":false,\"markdown\":\"# **FTP** RESULTS\"},\"aggs\":[]}"},"id":"3a1b1e70-a1c0-11ea-8d5d-39814bb06ebc","migrationVersion":{"visualization":"7.4.2"},"references":[],"type":"visualization","updated_at":"2020-05-29T15:22:36.887Z","version":"Wzc5LDJd"}
{"attributes":{"fields":"[{\"name\":\"_id\",\"type\":\"string\",\"esTypes\":[\"_id\"],\"count\":0,\"scripted\":false,\"searchable\":true,\"aggregatable\":true,\"readFromDocValues\":false},{\"name\":\"_index\",\"type\":\"string\",\"esTypes\":[\"_index\"],\"count\":0,\"scripted\":false,\"searchable\":true,\"aggregatable\":true,\"readFromDocValues\":false},{\"name\":\"_score\",\"type\":\"number\",\"count\":0,\"scripted\":false,\"searchable\":false,\"aggregatable\":false,\"readFromDocValues\":false},{\"name\":\"_source\",\"type\":\"_source\",\"esTypes\":[\"_source\"],\"count\":0,\"scripted\":false,\"searchable\":false,\"aggregatable\":false,\"readFromDocValues\":false},{\"name\":\"_type\",\"type\":\"string\",\"esTypes\":[\"_type\"],\"count\":0,\"scripted\":false,\"searchable\":true,\"aggregatable\":true,\"readFromDocValues\":false},{\"name\":\"category\",\"type\":\"string\",\"esTypes\":[\"text\"],\"count\":0,\"scripted\":false,\"searchable\":true,\"aggregatable\":false,\"readFromDocValues\":false},{\"name\":\"category.keyword\",\"type\":\"string\",\"esTypes\":[\"keyword\"],\"count\":0,\"scripted\":false,\"searchable\":true,\"aggregatable\":true,\"readFromDocValues\":true,\"parent\":\"category\",\"subType\":\"multi\"},{\"name\":\"date\",\"type\":\"date\",\"esTypes\":[\"date\"],\"count\":0,\"scripted\":false,\"searchable\":true,\"aggregatable\":true,\"readFromDocValues\":true},{\"name\":\"description\",\"type\":\"string\",\"esTypes\":[\"text\"],\"count\":0,\"scripted\":false,\"searchable\":true,\"aggregatable\":false,\"readFromDocValues\":false},{\"name\":\"description.keyword\",\"type\":\"string\",\"esTypes\":[\"keyword\"],\"count\":0,\"scripted\":false,\"searchable\":true,\"aggregatable\":true,\"readFromDocValues\":true,\"parent\":\"description\",\"subType\":\"multi\"},{\"name\":\"headers\",\"type\":\"string\",\"esTypes\":[\"text\"],\"count\":0,\"scripted\":false,\"searchable\":true,\"aggregatable\":false,\"readFromDocValues\":false},{\"name\":\"headers.keyword\",\"type\":\"string\",\"esTypes\":[\"keyword\"],\"count\":0,\"scripted\":false,\"searchable\":true,\"aggregatable\":true,\"readFromDocValues\":true,\"parent\":\"headers\",\"subType\":\"multi\"},{\"name\":\"host\",\"type\":\"string\",\"esTypes\":[\"text\"],\"count\":0,\"scripted\":false,\"searchable\":true,\"aggregatable\":false,\"readFromDocValues\":false},{\"name\":\"host.keyword\",\"type\":\"string\",\"esTypes\":[\"keyword\"],\"count\":0,\"scripted\":false,\"searchable\":true,\"aggregatable\":true,\"readFromDocValues\":true,\"parent\":\"host\",\"subType\":\"multi\"},{\"name\":\"name\",\"type\":\"string\",\"esTypes\":[\"text\"],\"count\":0,\"scripted\":false,\"searchable\":true,\"aggregatable\":false,\"readFromDocValues\":false},{\"name\":\"name.keyword\",\"type\":\"string\",\"esTypes\":[\"keyword\"],\"count\":0,\"scripted\":false,\"searchable\":true,\"aggregatable\":true,\"readFromDocValues\":true,\"parent\":\"name\",\"subType\":\"multi\"},{\"name\":\"port\",\"type\":\"number\",\"esTypes\":[\"short\"],\"count\":0,\"scripted\":false,\"searchable\":true,\"aggregatable\":true,\"readFromDocValues\":true},{\"name\":\"service\",\"type\":\"string\",\"esTypes\":[\"text\"],\"count\":0,\"scripted\":false,\"searchable\":true,\"aggregatable\":false,\"readFromDocValues\":false},{\"name\":\"service.keyword\",\"type\":\"string\",\"esTypes\":[\"keyword\"],\"count\":0,\"scripted\":false,\"searchable\":true,\"aggregatable\":true,\"readFromDocValues\":true,\"parent\":\"service\",\"subType\":\"multi\"},{\"name\":\"source\",\"type\":\"string\",\"esTypes\":[\"text\"],\"count\":0,\"scripted\":false,\"searchable\":true,\"aggregatable\":false,\"readFromDocValues\":false},{\"name\":\"source.keyword\",\"type\":\"string\",\"esTypes\":[\"keyword\"],\"count\":0,\"scripted\":false,\"searchable\":true,\"aggregatable\":true,\"readFromDocValues\":true,\"parent\":\"source\",\"subType\":\"multi\"}]","timeFieldName":"date","title":"datos_ftp"},"id":"bb7d3760-8a4a-11ea-995b-5fad58e4d75c","migrationVersion":{"index-pattern":"6.5.0"},"references":[],"type":"index-pattern","updated_at":"2020-05-28T16:39:11.756Z","version":"WzE1LDFd"}
{"attributes":{"description":"","kibanaSavedObjectMeta":{"searchSourceJSON":"{\"query\":{\"query\":\"\",\"language\":\"kuery\"},\"filter\":[],\"indexRefName\":\"kibanaSavedObjectMeta.searchSourceJSON.index\"}"},"title":"FTP Count","uiStateJSON":"{}","version":1,"visState":"{\"title\":\"FTP Count\",\"type\":\"metric\",\"params\":{\"metric\":{\"percentageMode\":false,\"useRanges\":false,\"colorSchema\":\"Green to Red\",\"metricColorMode\":\"None\",\"colorsRange\":[{\"type\":\"range\",\"from\":0,\"to\":10000}],\"labels\":{\"show\":true},\"invertColors\":false,\"style\":{\"bgFill\":\"#000\",\"bgColor\":false,\"labelColor\":false,\"subText\":\"\",\"fontSize\":40}},\"dimensions\":{\"metrics\":[{\"type\":\"vis_dimension\",\"accessor\":0,\"format\":{\"id\":\"number\",\"params\":{}}}]},\"addTooltip\":true,\"addLegend\":false,\"type\":\"metric\"},\"aggs\":[{\"id\":\"1\",\"enabled\":true,\"type\":\"count\",\"schema\":\"metric\",\"params\":{\"customLabel\":\"FTP Count\"}}]}"},"id":"61b16570-a1c0-11ea-8d5d-39814bb06ebc","migrationVersion":{"visualization":"7.4.2"},"references":[{"id":"bb7d3760-8a4a-11ea-995b-5fad58e4d75c","name":"kibanaSavedObjectMeta.searchSourceJSON.index","type":"index-pattern"}],"type":"visualization","updated_at":"2020-05-29T15:36:21.110Z","version":"WzEwNiwyXQ=="}
{"attributes":{"description":"","kibanaSavedObjectMeta":{"searchSourceJSON":"{\"query\":{\"query\":\"\",\"language\":\"kuery\"},\"filter\":[]}"},"title":"Title CVE","uiStateJSON":"{}","version":1,"visState":"{\"title\":\"Title CVE\",\"type\":\"markdown\",\"params\":{\"fontSize\":12,\"openLinksInNewTab\":false,\"markdown\":\"# **CVE** Details\"},\"aggs\":[]}"},"id":"868434c0-a1c2-11ea-8d5d-39814bb06ebc","migrationVersion":{"visualization":"7.4.2"},"references":[],"type":"visualization","updated_at":"2020-05-29T15:39:04.076Z","version":"WzExOSwyXQ=="}
{"attributes":{"fields":"[{\"name\":\"_id\",\"type\":\"string\",\"esTypes\":[\"_id\"],\"count\":0,\"scripted\":false,\"searchable\":true,\"aggregatable\":true,\"readFromDocValues\":false},{\"name\":\"_index\",\"type\":\"string\",\"esTypes\":[\"_index\"],\"count\":0,\"scripted\":false,\"searchable\":true,\"aggregatable\":true,\"readFromDocValues\":false},{\"name\":\"_score\",\"type\":\"number\",\"count\":0,\"scripted\":false,\"searchable\":false,\"aggregatable\":false,\"readFromDocValues\":false},{\"name\":\"_source\",\"type\":\"_source\",\"esTypes\":[\"_source\"],\"count\":0,\"scripted\":false,\"searchable\":false,\"aggregatable\":false,\"readFromDocValues\":false},{\"name\":\"_type\",\"type\":\"string\",\"esTypes\":[\"_type\"],\"count\":0,\"scripted\":false,\"searchable\":true,\"aggregatable\":true,\"readFromDocValues\":false},{\"name\":\"cve_id\",\"type\":\"string\",\"esTypes\":[\"text\"],\"count\":1,\"scripted\":false,\"searchable\":true,\"aggregatable\":false,\"readFromDocValues\":false},{\"name\":\"cve_id.keyword\",\"type\":\"string\",\"esTypes\":[\"keyword\"],\"count\":0,\"scripted\":false,\"searchable\":true,\"aggregatable\":true,\"readFromDocValues\":true,\"parent\":\"cve_id\",\"subType\":\"multi\"},{\"name\":\"server\",\"type\":\"string\",\"esTypes\":[\"text\"],\"count\":1,\"scripted\":false,\"searchable\":true,\"aggregatable\":false,\"readFromDocValues\":false},{\"name\":\"server.keyword\",\"type\":\"string\",\"esTypes\":[\"keyword\"],\"count\":0,\"scripted\":false,\"searchable\":true,\"aggregatable\":true,\"readFromDocValues\":true,\"parent\":\"server\",\"subType\":\"multi\"},{\"name\":\"software\",\"type\":\"string\",\"esTypes\":[\"text\"],\"count\":0,\"scripted\":false,\"searchable\":true,\"aggregatable\":false,\"readFromDocValues\":false},{\"name\":\"software.keyword\",\"type\":\"string\",\"esTypes\":[\"keyword\"],\"count\":0,\"scripted\":false,\"searchable\":true,\"aggregatable\":true,\"readFromDocValues\":true,\"parent\":\"software\",\"subType\":\"multi\"}]","title":"software_cve*"},"id":"b6f82ef0-a108-11ea-a0a7-5b4f250bc516","migrationVersion":{"index-pattern":"6.5.0"},"references":[],"type":"index-pattern","updated_at":"2020-05-28T17:29:39.348Z","version":"WzQ2LDFd"}
{"attributes":{"description":"","kibanaSavedObjectMeta":{"searchSourceJSON":"{\"query\":{\"query\":\"\",\"language\":\"kuery\"},\"filter\":[],\"indexRefName\":\"kibanaSavedObjectMeta.searchSourceJSON.index\"}"},"title":"Software CVE","uiStateJSON":"{}","version":1,"visState":"{\"title\":\"Software CVE\",\"type\":\"histogram\",\"params\":{\"type\":\"histogram\",\"grid\":{\"categoryLines\":false},\"categoryAxes\":[{\"id\":\"CategoryAxis-1\",\"type\":\"category\",\"position\":\"bottom\",\"show\":true,\"style\":{},\"scale\":{\"type\":\"linear\"},\"labels\":{\"show\":true,\"filter\":false,\"truncate\":25,\"rotate\":75},\"title\":{}}],\"valueAxes\":[{\"id\":\"ValueAxis-1\",\"name\":\"LeftAxis-1\",\"type\":\"value\",\"position\":\"left\",\"show\":true,\"style\":{},\"scale\":{\"type\":\"linear\",\"mode\":\"normal\"},\"labels\":{\"show\":true,\"rotate\":0,\"filter\":false,\"truncate\":100},\"title\":{\"text\":\"Count\"}}],\"seriesParams\":[{\"show\":true,\"type\":\"histogram\",\"mode\":\"stacked\",\"data\":{\"label\":\"Count\",\"id\":\"1\"},\"valueAxis\":\"ValueAxis-1\",\"drawLinesBetweenPoints\":true,\"lineWidth\":2,\"showCircles\":true}],\"addTooltip\":true,\"addLegend\":true,\"legendPosition\":\"top\",\"times\":[],\"addTimeMarker\":false,\"labels\":{\"show\":false},\"thresholdLine\":{\"show\":false,\"value\":10,\"width\":1,\"style\":\"full\",\"color\":\"#34130C\"},\"dimensions\":{\"x\":{\"accessor\":0,\"format\":{\"id\":\"terms\",\"params\":{\"id\":\"string\",\"otherBucketLabel\":\"Other\",\"missingBucketLabel\":\"Missing\"}},\"params\":{},\"aggType\":\"terms\"},\"y\":[{\"accessor\":1,\"format\":{\"id\":\"number\"},\"params\":{},\"aggType\":\"count\"}]}},\"aggs\":[{\"id\":\"1\",\"enabled\":true,\"type\":\"count\",\"schema\":\"metric\",\"params\":{}},{\"id\":\"2\",\"enabled\":true,\"type\":\"terms\",\"schema\":\"segment\",\"params\":{\"field\":\"software.keyword\",\"orderBy\":\"1\",\"order\":\"desc\",\"size\":500,\"otherBucket\":false,\"otherBucketLabel\":\"Other\",\"missingBucket\":false,\"missingBucketLabel\":\"Missing\",\"customLabel\":\"Software\"}}]}"},"id":"7dc60c00-a1c2-11ea-8d5d-39814bb06ebc","migrationVersion":{"visualization":"7.4.2"},"references":[{"id":"b6f82ef0-a108-11ea-a0a7-5b4f250bc516","name":"kibanaSavedObjectMeta.searchSourceJSON.index","type":"index-pattern"}],"type":"visualization","updated_at":"2020-05-29T15:39:45.041Z","version":"WzEyMywyXQ=="}
{"attributes":{"description":"","hits":0,"kibanaSavedObjectMeta":{"searchSourceJSON":"{\"query\":{\"language\":\"kuery\",\"query\":\"\"},\"filter\":[]}"},"optionsJSON":"{\"hidePanelTitles\":false,\"useMargins\":true}","panelsJSON":"[{\"version\":\"7.5.2\",\"gridData\":{\"x\":0,\"y\":0,\"w\":48,\"h\":4,\"i\":\"6f77ea4a-05f4-4064-b6e0-2cd28d8caadc\"},\"panelIndex\":\"6f77ea4a-05f4-4064-b6e0-2cd28d8caadc\",\"embeddableConfig\":{},\"panelRefName\":\"panel_0\"},{\"version\":\"7.5.2\",\"gridData\":{\"x\":0,\"y\":4,\"w\":20,\"h\":20,\"i\":\"02d7e507-56f4-408d-af44-adb2ea3ff7b9\"},\"panelIndex\":\"02d7e507-56f4-408d-af44-adb2ea3ff7b9\",\"embeddableConfig\":{},\"panelRefName\":\"panel_1\"},{\"version\":\"7.5.2\",\"gridData\":{\"x\":20,\"y\":4,\"w\":14,\"h\":8,\"i\":\"5e087421-488d-474d-8859-27cfd5ad172c\"},\"panelIndex\":\"5e087421-488d-474d-8859-27cfd5ad172c\",\"embeddableConfig\":{},\"panelRefName\":\"panel_2\"},{\"version\":\"7.5.2\",\"gridData\":{\"x\":34,\"y\":4,\"w\":14,\"h\":8,\"i\":\"a306fe3a-88f3-47b3-ba9d-0a001083cc6a\"},\"panelIndex\":\"a306fe3a-88f3-47b3-ba9d-0a001083cc6a\",\"embeddableConfig\":{},\"panelRefName\":\"panel_3\"},{\"version\":\"7.5.2\",\"gridData\":{\"x\":20,\"y\":12,\"w\":28,\"h\":12,\"i\":\"2aa3ceac-c547-4a8b-8250-2b526dffb663\"},\"panelIndex\":\"2aa3ceac-c547-4a8b-8250-2b526dffb663\",\"embeddableConfig\":{},\"panelRefName\":\"panel_4\"},{\"version\":\"7.5.2\",\"gridData\":{\"x\":0,\"y\":24,\"w\":30,\"h\":5,\"i\":\"ccd8afdd-ef76-4827-8ec0-03e291d4d12f\"},\"panelIndex\":\"ccd8afdd-ef76-4827-8ec0-03e291d4d12f\",\"embeddableConfig\":{},\"panelRefName\":\"panel_5\"},{\"version\":\"7.5.2\",\"gridData\":{\"x\":30,\"y\":24,\"w\":18,\"h\":5,\"i\":\"92697fc7-9649-404b-82c2-26cd56904643\"},\"panelIndex\":\"92697fc7-9649-404b-82c2-26cd56904643\",\"embeddableConfig\":{},\"panelRefName\":\"panel_6\"},{\"version\":\"7.5.2\",\"gridData\":{\"x\":0,\"y\":29,\"w\":24,\"h\":15,\"i\":\"147cca87-785d-43d3-924b-fe8cc22cbb41\"},\"panelIndex\":\"147cca87-785d-43d3-924b-fe8cc22cbb41\",\"embeddableConfig\":{},\"panelRefName\":\"panel_7\"},{\"version\":\"7.5.2\",\"gridData\":{\"x\":24,\"y\":29,\"w\":24,\"h\":15,\"i\":\"f2535f9a-4d6d-433d-bb81-3b2b60f4ff39\"},\"panelIndex\":\"f2535f9a-4d6d-433d-bb81-3b2b60f4ff39\",\"embeddableConfig\":{},\"panelRefName\":\"panel_8\"},{\"version\":\"7.5.2\",\"gridData\":{\"x\":0,\"y\":44,\"w\":30,\"h\":5,\"i\":\"34094476-b756-4893-bbf0-c565633441fc\"},\"panelIndex\":\"34094476-b756-4893-bbf0-c565633441fc\",\"embeddableConfig\":{},\"panelRefName\":\"panel_9\"},{\"version\":\"7.5.2\",\"gridData\":{\"x\":30,\"y\":44,\"w\":18,\"h\":5,\"i\":\"6d7cda19-f723-4fb5-a673-73d04f2904cb\"},\"panelIndex\":\"6d7cda19-f723-4fb5-a673-73d04f2904cb\",\"embeddableConfig\":{},\"panelRefName\":\"panel_10\"},{\"version\":\"7.5.2\",\"gridData\":{\"x\":0,\"y\":49,\"w\":24,\"h\":15,\"i\":\"dbc543ac-eedc-46bf-86c6-22361f441a5b\"},\"panelIndex\":\"dbc543ac-eedc-46bf-86c6-22361f441a5b\",\"embeddableConfig\":{},\"panelRefName\":\"panel_11\"},{\"version\":\"7.5.2\",\"gridData\":{\"x\":24,\"y\":49,\"w\":24,\"h\":15,\"i\":\"be94a361-8514-462f-8f4a-bc1767110f59\"},\"panelIndex\":\"be94a361-8514-462f-8f4a-bc1767110f59\",\"embeddableConfig\":{},\"panelRefName\":\"panel_12\"},{\"version\":\"7.5.2\",\"gridData\":{\"x\":0,\"y\":64,\"w\":31,\"h\":5,\"i\":\"e96e2fd5-d1d0-4c01-a78e-c396200585c5\"},\"panelIndex\":\"e96e2fd5-d1d0-4c01-a78e-c396200585c5\",\"embeddableConfig\":{},\"panelRefName\":\"panel_13\"},{\"version\":\"7.5.2\",\"gridData\":{\"x\":31,\"y\":64,\"w\":17,\"h\":5,\"i\":\"1aa92af8-b75c-4c6e-8ca5-25a5ae461266\"},\"panelIndex\":\"1aa92af8-b75c-4c6e-8ca5-25a5ae461266\",\"embeddableConfig\":{},\"panelRefName\":\"panel_14\"},{\"version\":\"7.5.2\",\"gridData\":{\"x\":0,\"y\":69,\"w\":24,\"h\":15,\"i\":\"cac648a7-d5e5-4f43-936a-bd2aa238bed3\"},\"panelIndex\":\"cac648a7-d5e5-4f43-936a-bd2aa238bed3\",\"embeddableConfig\":{},\"panelRefName\":\"panel_15\"},{\"version\":\"7.5.2\",\"gridData\":{\"x\":24,\"y\":69,\"w\":24,\"h\":15,\"i\":\"a58389ec-5a5a-44b3-ab01-bd4675c36ab2\"},\"panelIndex\":\"a58389ec-5a5a-44b3-ab01-bd4675c36ab2\",\"embeddableConfig\":{},\"panelRefName\":\"panel_16\"},{\"version\":\"7.5.2\",\"gridData\":{\"x\":0,\"y\":84,\"w\":31,\"h\":4,\"i\":\"c265a3c0-93cf-4d1a-af51-0419ab841ec8\"},\"panelIndex\":\"c265a3c0-93cf-4d1a-af51-0419ab841ec8\",\"embeddableConfig\":{},\"panelRefName\":\"panel_17\"},{\"version\":\"7.5.2\",\"gridData\":{\"x\":31,\"y\":84,\"w\":17,\"h\":4,\"i\":\"b22b5e7b-16eb-4e26-8a03-9d90522c8162\"},\"panelIndex\":\"b22b5e7b-16eb-4e26-8a03-9d90522c8162\",\"embeddableConfig\":{},\"panelRefName\":\"panel_18\"},{\"version\":\"7.5.2\",\"gridData\":{\"x\":0,\"y\":88,\"w\":48,\"h\":4,\"i\":\"72f2851b-3579-4bd2-9747-7d653c2f76c8\"},\"panelIndex\":\"72f2851b-3579-4bd2-9747-7d653c2f76c8\",\"embeddableConfig\":{},\"panelRefName\":\"panel_19\"},{\"version\":\"7.5.2\",\"gridData\":{\"x\":0,\"y\":92,\"w\":48,\"h\":19,\"i\":\"6cccdab0-0bc9-4ce3-a29c-7b6169072eaf\"},\"panelIndex\":\"6cccdab0-0bc9-4ce3-a29c-7b6169072eaf\",\"embeddableConfig\":{},\"panelRefName\":\"panel_20\"}]","timeRestore":false,"title":"Dashboard 1","version":1},"id":"1ff06550-8a4b-11ea-995b-5fad58e4d75c","migrationVersion":{"dashboard":"7.3.0"},"references":[{"id":"717642f0-a1c0-11ea-8d5d-39814bb06ebc","name":"panel_0","type":"visualization"},{"id":"f314c8a0-8a4a-11ea-995b-5fad58e4d75c","name":"panel_1","type":"visualization"},{"id":"8d740d80-a1bf-11ea-8d5d-39814bb06ebc","name":"panel_2","type":"visualization"},{"id":"999c1530-a1bf-11ea-8d5d-39814bb06ebc","name":"panel_3","type":"visualization"},{"id":"1ca754d0-8a4b-11ea-995b-5fad58e4d75c","name":"panel_4","type":"visualization"},{"id":"24684f30-a1c0-11ea-8d5d-39814bb06ebc","name":"panel_5","type":"visualization"},{"id":"446390b0-a1c0-11ea-8d5d-39814bb06ebc","name":"panel_6","type":"visualization"},{"id":"14945590-8b0e-11ea-9f84-61d28772cfec","name":"panel_7","type":"visualization"},{"id":"386cd140-8b0e-11ea-9f84-61d28772cfec","name":"panel_8","type":"visualization"},{"id":"2c4ae500-a1c0-11ea-8d5d-39814bb06ebc","name":"panel_9","type":"visualization"},{"id":"524de1d0-a1c0-11ea-8d5d-39814bb06ebc","name":"panel_10","type":"visualization"},{"id":"16583360-8b13-11ea-9f84-61d28772cfec","name":"panel_11","type":"visualization"},{"id":"7e389960-a1c1-11ea-8d5d-39814bb06ebc","name":"panel_12","type":"visualization"},{"id":"328b3c80-a1c0-11ea-8d5d-39814bb06ebc","name":"panel_13","type":"visualization"},{"id":"59607d70-a1c0-11ea-8d5d-39814bb06ebc","name":"panel_14","type":"visualization"},{"id":"2b56f4e0-8b13-11ea-9f84-61d28772cfec","name":"panel_15","type":"visualization"},{"id":"a2daa6a0-a1c1-11ea-8d5d-39814bb06ebc","name":"panel_16","type":"visualization"},{"id":"3a1b1e70-a1c0-11ea-8d5d-39814bb06ebc","name":"panel_17","type":"visualization"},{"id":"61b16570-a1c0-11ea-8d5d-39814bb06ebc","name":"panel_18","type":"visualization"},{"id":"868434c0-a1c2-11ea-8d5d-39814bb06ebc","name":"panel_19","type":"visualization"},{"id":"7dc60c00-a1c2-11ea-8d5d-39814bb06ebc","name":"panel_20","type":"visualization"}],"type":"dashboard","updated_at":"2020-05-29T15:39:31.567Z","version":"WzEyMiwyXQ=="}
{"attributes":{"fields":"[{\"name\":\"_id\",\"type\":\"string\",\"esTypes\":[\"_id\"],\"count\":0,\"scripted\":false,\"searchable\":true,\"aggregatable\":true,\"readFromDocValues\":false},{\"name\":\"_index\",\"type\":\"string\",\"esTypes\":[\"_index\"],\"count\":0,\"scripted\":false,\"searchable\":true,\"aggregatable\":true,\"readFromDocValues\":false},{\"name\":\"_score\",\"type\":\"number\",\"count\":0,\"scripted\":false,\"searchable\":false,\"aggregatable\":false,\"readFromDocValues\":false},{\"name\":\"_source\",\"type\":\"_source\",\"esTypes\":[\"_source\"],\"count\":0,\"scripted\":false,\"searchable\":false,\"aggregatable\":false,\"readFromDocValues\":false},{\"name\":\"_type\",\"type\":\"string\",\"esTypes\":[\"_type\"],\"count\":0,\"scripted\":false,\"searchable\":true,\"aggregatable\":true,\"readFromDocValues\":false},{\"name\":\"cve_id\",\"type\":\"string\",\"esTypes\":[\"text\"],\"count\":0,\"scripted\":false,\"searchable\":true,\"aggregatable\":false,\"readFromDocValues\":false},{\"name\":\"cve_id.keyword\",\"type\":\"string\",\"esTypes\":[\"keyword\"],\"count\":0,\"scripted\":false,\"searchable\":true,\"aggregatable\":true,\"readFromDocValues\":true,\"parent\":\"cve_id\",\"subType\":\"multi\"},{\"name\":\"cvss_score\",\"type\":\"string\",\"esTypes\":[\"text\"],\"count\":0,\"scripted\":false,\"searchable\":true,\"aggregatable\":false,\"readFromDocValues\":false},{\"name\":\"cvss_score.keyword\",\"type\":\"string\",\"esTypes\":[\"keyword\"],\"count\":0,\"scripted\":false,\"searchable\":true,\"aggregatable\":true,\"readFromDocValues\":true,\"parent\":\"cvss_score\",\"subType\":\"multi\"},{\"name\":\"cwe_id\",\"type\":\"string\",\"esTypes\":[\"text\"],\"count\":0,\"scripted\":false,\"searchable\":true,\"aggregatable\":false,\"readFromDocValues\":false},{\"name\":\"cwe_id.keyword\",\"type\":\"string\",\"esTypes\":[\"keyword\"],\"count\":0,\"scripted\":false,\"searchable\":true,\"aggregatable\":true,\"readFromDocValues\":true,\"parent\":\"cwe_id\",\"subType\":\"multi\"},{\"name\":\"exploit_count\",\"type\":\"string\",\"esTypes\":[\"text\"],\"count\":0,\"scripted\":false,\"searchable\":true,\"aggregatable\":false,\"readFromDocValues\":false},{\"name\":\"exploit_count.keyword\",\"type\":\"string\",\"esTypes\":[\"keyword\"],\"count\":0,\"scripted\":false,\"searchable\":true,\"aggregatable\":true,\"readFromDocValues\":true,\"parent\":\"exploit_count\",\"subType\":\"multi\"},{\"name\":\"publish_date\",\"type\":\"date\",\"esTypes\":[\"date\"],\"count\":0,\"scripted\":false,\"searchable\":true,\"aggregatable\":true,\"readFromDocValues\":true},{\"name\":\"summary\",\"type\":\"string\",\"esTypes\":[\"text\"],\"count\":0,\"scripted\":false,\"searchable\":true,\"aggregatable\":false,\"readFromDocValues\":false},{\"name\":\"summary.keyword\",\"type\":\"string\",\"esTypes\":[\"keyword\"],\"count\":0,\"scripted\":false,\"searchable\":true,\"aggregatable\":true,\"readFromDocValues\":true,\"parent\":\"summary\",\"subType\":\"multi\"},{\"name\":\"update_date\",\"type\":\"date\",\"esTypes\":[\"date\"],\"count\":0,\"scripted\":false,\"searchable\":true,\"aggregatable\":true,\"readFromDocValues\":true},{\"name\":\"url\",\"type\":\"string\",\"esTypes\":[\"text\"],\"count\":0,\"scripted\":false,\"searchable\":true,\"aggregatable\":false,\"readFromDocValues\":false},{\"name\":\"url.keyword\",\"type\":\"string\",\"esTypes\":[\"keyword\"],\"count\":0,\"scripted\":false,\"searchable\":true,\"aggregatable\":true,\"readFromDocValues\":true,\"parent\":\"url\",\"subType\":\"multi\"}]","title":"cve_details"},"id":"56a5b760-a109-11ea-a0a7-5b4f250bc516","migrationVersion":{"index-pattern":"6.5.0"},"references":[],"type":"index-pattern","updated_at":"2020-05-28T17:33:27.388Z","version":"WzUxLDFd"}
{"exportedCount":30,"missingRefCount":0,"missingReferences":[]}